%YAML 1.1
%TAG !u! tag:unity3d.com,2011:
--- !u!114 &11400000
MonoBehaviour:
  m_ObjectHideFlags: 0
  m_CorrespondingSourceObject: {fileID: 0}
  m_PrefabInstance: {fileID: 0}
  m_PrefabAsset: {fileID: 0}
  m_GameObject: {fileID: 0}
  m_Enabled: 1
  m_EditorHideFlags: 0
  m_Script: {fileID: 11500000, guid: f2081eefc07932b42aba29b9b970cee6, type: 3}
  m_Name: DataCatHoi
  m_EditorClassIdentifier: 
  Number: 8
  Cost: 2
  Field: 1
  Name: Cat Hoi
  Attack: 2
  Hp: 6
  Description: Cat Hoi
  TypeCard: 0
  ImageCard: {fileID: 0}
  IsAttacked: 1
  IsBuy: 0
